{
	"dev" : {
		"driver" : "mongodb",
		"mongodb" : {
			"connection" : {
				"host" : "localhost",
				"port" : 27017,
				"db" : "avocado"
			}
		}
	},
	"production" : {
		"driver" : "mongodb",
		"mongodb" : {
			"connection" : {
				"host" : "127.3.202.130",
				"port" : 27017,
				"db" : "web",
				"user" : "admin",
				"pwd" : "Yxtb7UDGFE84"
			}
		}
	}
}